{
    "name": "KulaInput",
    "maps": [
        {
            "name": "KulaControls",
            "id": "11157e27-e8eb-4187-a5e4-6a5f4e6792f4",
            "actions": [
                {
                    "name": "TurnLeft",
                    "type": "Button",
                    "id": "b18e2391-6bd2-4c7b-a661-23c4528aa827",
                    "expectedControlType": "Button",
                    "processors": "",
                    "interactions": "",
                    "initialStateCheck": false
                },
                {
                    "name": "TurnRight",
                    "type": "Button",
                    "id": "c33e943a-4797-41a1-a6db-e4348cce9c3f",
                    "expectedControlType": "Button",
                    "processors": "",
                    "interactions": "",
                    "initialStateCheck": false
                },
                {
                    "name": "RollForward",
                    "type": "Button",
                    "id": "2008fb5b-7a9a-4175-adb1-afc8a75a3b13",
                    "expectedControlType": "Button",
                    "processors": "",
                    "interactions": "",
                    "initialStateCheck": false
                },
                {
                    "name": "Jump",
                    "type": "Button",
                    "id": "cd9b6f7b-dd15-4d44-a12b-36d44247e525",
                    "expectedControlType": "Button",
                    "processors": "",
                    "interactions": "",
                    "initialStateCheck": false
                }
            ],
            "bindings": [
                {
                    "name": "",
                    "id": "2b14495b-5251-4653-84f2-96d8a80917a6",
                    "path": "<Keyboard>/a",
                    "interactions": "",
                    "processors": "",
                    "groups": "",
                    "action": "TurnLeft",
                    "isComposite": false,
                    "isPartOfComposite": false
                },
                {
                    "name": "",
                    "id": "ae7af0b2-ff38-4da1-b938-047bb87a1307",
                    "path": "<Keyboard>/leftArrow",
                    "interactions": "",
                    "processors": "",
                    "groups": "",
                    "action": "TurnLeft",
                    "isComposite": false,
                    "isPartOfComposite": false
                },
                {
                    "name": "",
                    "id": "5ecbcb04-4425-40e4-9cdf-243a2c51d1b6",
                    "path": "<Keyboard>/d",
                    "interactions": "",
                    "processors": "",
                    "groups": "",
                    "action": "TurnRight",
                    "isComposite": false,
                    "isPartOfComposite": false
                },
                {
                    "name": "",
                    "id": "7b9084fd-4efe-43b1-ad5f-e98f263b38bd",
                    "path": "<Keyboard>/rightArrow",
                    "interactions": "",
                    "processors": "",
                    "groups": "",
                    "action": "TurnRight",
                    "isComposite": false,
                    "isPartOfComposite": false
                },
                {
                    "name": "",
                    "id": "0ce37e41-9760-43fc-9fd7-c8001e8d1177",
                    "path": "<Keyboard>/w",
                    "interactions": "",
                    "processors": "",
                    "groups": "",
                    "action": "RollForward",
                    "isComposite": false,
                    "isPartOfComposite": false
                },
                {
                    "name": "",
                    "id": "f7c746ef-fa1e-4e37-892a-b05a7d01ba7c",
                    "path": "<Keyboard>/upArrow",
                    "interactions": "",
                    "processors": "",
                    "groups": "",
                    "action": "RollForward",
                    "isComposite": false,
                    "isPartOfComposite": false
                },
                {
                    "name": "",
                    "id": "6d1e2e34-31b6-4789-aee2-30518daab608",
                    "path": "<Keyboard>/space",
                    "interactions": "",
                    "processors": "",
                    "groups": "",
                    "action": "Jump",
                    "isComposite": false,
                    "isPartOfComposite": false
                }
            ]
        }
    ],
    "controlSchemes": []
}